mode: set
api-test/main.go:14.13,19.2 3 0
api-test/main.go:29.63,33.67 4 1
api-test/main.go:33.67,38.3 3 0
api-test/main.go:38.8,38.35 1 1
api-test/main.go:38.35,44.3 5 1
api-test/main.go:44.8,56.18 6 1
api-test/main.go:63.3,63.38 1 1
api-test/main.go:56.18,61.4 4 1
